{
	"info": {
		"_postman_id": "fc701e6b-7dea-4ae8-a524-a9d7f0a58634",
		"name": "tes-permohonan-cuti",
		"description": "Nomer 4",
		"schema": "https://schema.getpostman.com/json/collection/v2.1.0/collection.json"
	},
	"item": [
		{
			"name": "Soal No 4 (POST Resolve Requst)",
			"protocolProfileBehavior": {
				"disableBodyPruning": true
			},
			"request": {
				"method": "GET",
				"header": [],
				"body": {
					"mode": "raw",
					"raw": "{\n\n\t\"usersDto\" : {\n\t\t\"idUser\" : 1\n\t},\n\t\n\t\"resolverReason\" : \"Dipersilahkan\",\n\t\"resolvedBy\" : \"Indra\",\n\t\"resolvedDate\" : \"2020-06-10\",\n\t\"status\" : \"approved\"\n\t\n\t\n}",
					"options": {
						"raw": {
							"language": "json"
						}
					}
				},
				"url": {
					"raw": "http://localhost:8081/api/requestleave/1/&?total=3&?descriptionSortBy=description",
					"protocol": "http",
					"host": [
						"localhost"
					],
					"port": "8081",
					"path": [
						"api",
						"requestleave",
						"1",
						"&"
					],
					"query": [
						{
							"key": "total",
							"value": "3"
						},
						{
							"key": "?descriptionSortBy",
							"value": "description"
						}
					]
				},
				"description": "http://localhost:8081/api/resolverequest/add -> POST"
			},
			"response": []
		},
		{
			"name": "Soal Nomer 1a (CRUD table user)",
			"request": {
				"method": "GET",
				"header": [],
				"url": {
					"raw": ""
				},
				"description": "http://localhost:8081/api/users/all -> GET | \nhttp://localhost:8081/api/users/1 -> GET | \nhttp://localhost:8081/api/users/add -> POST | \nhttp://localhost:8081/api/users/update/1 -> PUT | \nhttp://localhost:8081/api/users/delete/1 -> Delete"
			},
			"response": []
		},
		{
			"name": "Soal nomer 1b (CRUD table position)",
			"request": {
				"method": "GET",
				"header": [],
				"url": {
					"raw": ""
				},
				"description": "http://localhost:8081/api/positions/all -> GET | \nhttp://localhost:8081/api/positions/1 -> GET |\nhttp://localhost:8081/api/positions/add -> POST |\nhttp://localhost:8081/api/positions/update/1 -> PUT | \nhttp://localhost:8081/api/positions/delete/1 -> Delete"
			},
			"response": []
		},
		{
			"name": "Soal nomer 1c (CRUD table position_leave)",
			"request": {
				"method": "GET",
				"header": [],
				"url": {
					"raw": ""
				},
				"description": "http://localhost:8081/api/positionleave/all -> GET |\nhttp://localhost:8081/api/positionleave/1 -> GET |\nhttp://localhost:8081/api/positionleave/add -> POST |\nhttp://localhost:8081/api/positionleave/update/1 -> PUT |\nhttp://localhost:8081/api/positionleave/delete/1 -> DELETE"
			},
			"response": []
		},
		{
			"name": "Soal nomer 2  (POST request_leave)",
			"request": {
				"method": "GET",
				"header": [],
				"url": {
					"raw": ""
				},
				"description": "http://localhost:8081/api/requestleave/add -> POST\nhttp://localhost:8081/api/requestleave/all -> GET"
			},
			"response": []
		},
		{
			"name": "Soal nomer 3  (GET listRequestLeave)",
			"request": {
				"method": "GET",
				"header": [],
				"url": {
					"raw": ""
				},
				"description": "http://localhost:8081/api/requestleave/?userId=1&?total=5&?descriptionSortBy=description -> GET\r\n"
			},
			"response": []
		}
	],
	"protocolProfileBehavior": {}
}